---------------------------------------------------------------------------------
@startuml
left to right direction
skinparam packageStyle rectangle
actor Клієнт as cl1
  cl1 --> (Авторизація в системі)
  cl1 --> (Інформація про підключення до системи)
  cl1 --> (Серверна інформація)
  cl1 --> (Перевірка даних користувача)
  cl1 --> (Пошук книги за автором)
  cl1 --> (Пошук книги за назвою)
  cl1 --> (Замовлення книги)
  cl1 --> (Вихід з системи)
  (Авторизація в системі) --> (Регістрація в системі)
actor Сервер as sv1
  (Інформація про підключення до системи) --> sv1
  (Серверна інформація) --> sv1
  (Перевірка даних користувача) --> sv1
  (Пошук книги за автором) --> sv1
  (Пошук книги за назвою) --> sv1
  (Замовлення книги) --> sv1
  (Вихід з системи) --> sv1
@enduml
------------------------------------------------------------------
@startuml
left to right direction
actor "Сервер" as fc
rectangle Сервер {
  usecase "Надсилання запиту" as UC1
  usecase "Перевірка запиту" as UC2
  usecase "Пошук інформації" as UC3
}
rectangle "Клієнт" {
  usecase "Перевірка авторизації клієнта" as U1
  usecase "Підтвердження входу" as U2
  usecase "Підтвердження замовлення" as U3
  usecase "Видача інформації про наявність книг" as U4
}
rectangle "База даних" {
  usecase "Реєстрація користувача" as UE1
  usecase "Перевірка даних користувача" as UE2
  usecase "Перевірка доступних книг" as UE3
  usecase "Запис сформованого замовлення" as UE4
}
fc --> UC1
UC1-->UC2
UC2-->UC3
fc --> U2
fc-->U1
fc-->U3
fc-->U4
UC3-->UE1
UC3-->UE3
UC3-->UE4
UC3-->UE2
@enduml
--------------------------------------------------------------------------------

@startuml
start
repeat
:Авторизуватися; 
:Введення логіну;
:Введення паролю;
:Перевірка даних;
backward:Повернення до авторизації;
repeat while (Правильні дані?) is (No) not (Yes)
stop
@enduml 
-------------------------------------------------------------------------------
@startuml
start
:Реєстрація;
fork
:Придумайте логін;
fork again
:Придумайте пароль;
:Введіть пароль ще раз;
fork again
:Введіть свою електронну пошту;
end fork
:Підтвердіть свою реєстрацію на електронній пошті;
stop
@endum
@enduml
--------------------------------------------------------------------------
@startuml
start
:Вибір книги;
if (Прийшла відповідь на сервер?) then (так)
  if (Чи є в наявності дана книга бібліотеці?) then (так)
  :Бронювання книги;
  :Виведення повідомлення з \nрозкладом роботи бібліотеки;
else (ні)
  :Виведення повідомлення про \nпомилку роботи системи;
endif
else (ні)
  :Виведення повідомлення про \nпомилку роботи системи;
endif

stop
@enduml
---------------------------------------------------------------------------
@startuml
start
:Пошук книги;

if (Виберіть параметер пошуку) then (За автором)
  :Введіть і'мя автора;
  :Пошук книг цього автора;
  :Надання переліку книг цього автора;
else (За назвою)
  :Введіть назву книги;
  :Пошук книг за назвою;
  :Надання переліку книг з похожою назвою;

 
endif

stop
@enduml
--------------------------------------------------------------------------------
@startuml
start
:Вихід із системи;
:Надсилання запиту на сервер;
if (Чи прийшла відповідь?) then (yes)
  :Виведення повідомлення про вихід;
else (no)
  :Виведення повідомлення про \nпомилку роботи системи;
endif

stop
@enduml
---------------------------------------------------------------------------------
@startuml
start
:Отримання запиту на запис;
fork
:Запис автора книгиу базу даних;
fork again
:Запис назви книги у базу даних;
fork again
:Запис інформації про книгу ;
end fork

stop
@enduml